…
  - `filter()`
  - `select()`
  - `arrange()`
  - `mutate()`
  - `summarise()`
  - `group_by()`

## Star Wars

``` r
starwars
```

    ## # A tibble: 87 x 13
    ##    name     height  mass hair_color skin_color eye_color birth_year gender
    ##    <chr>     <int> <dbl> <chr>      <chr>      <chr>          <dbl> <chr> 
    ##  1 Luke Sk…    172  77.0 blond      fair       blue            19.0 male  
    ##  2 C-3PO       167  75.0 <NA>       gold       yellow         112   <NA>  
    ##  3 R2-D2        96  32.0 <NA>       white, bl… red             33.0 <NA>  
    ##  4 Darth V…    202 136   none       white      yellow          41.9 male  
    ##  5 Leia Or…    150  49.0 brown      light      brown           19.0 female
    ##  6 Owen La…    178 120   brown, gr… light      blue            52.0 male  
    ##  7 Beru Wh…    165  75.0 brown      light      blue            47.0 female
    ##  8 R5-D4        97  32.0 <NA>       white, red red             NA   <NA>  
    ##  9 Biggs D…    183  84.0 black      light      brown           24.0 male  
    ## 10 Obi-Wan…    182  77.0 auburn, w… fair       blue-gray       57.0 male  
    ## # ... with 77 more rows, and 5 more variables: homeworld <chr>,
    ## #   species <chr>, films <list>, vehicles <list>, starships <list>

## `arrange()`: Reorder rows in data

First argument, `.data`, is a data frame or tibble,  
other arguments, `...`, are columns to order by.

Reorder by `mass`:

``` r
arrange(starwars, mass)
```

    ## # A tibble: 87 x 13
    ##    name     height  mass hair_color skin_color eye_color birth_year gender
    ##    <chr>     <int> <dbl> <chr>      <chr>      <chr>          <dbl> <chr> 
    ##  1 Ratts T…     79  15.0 none       grey, blue unknown        NA    male  
    ##  2 Yoda         66  17.0 white      green      brown         896    male  
    ##  3 Wicket …     88  20.0 brown      brown      brown           8.00 male  
    ##  4 R2-D2        96  32.0 <NA>       white, bl… red            33.0  <NA>  
    ##  5 R5-D4        97  32.0 <NA>       white, red red            NA    <NA>  
    ##  6 Sebulba     112  40.0 none       grey, red  orange         NA    male  
    ##  7 Dud Bolt     94  45.0 none       blue, grey yellow         NA    male  
    ##  8 Padmé A…    165  45.0 brown      light      brown          46.0  female
    ##  9 Wat Tam…    193  48.0 none       green, gr… unknown        NA    male  
    ## 10 Sly Moo…    178  48.0 none       pale       white          NA    female
    ## # ... with 77 more rows, and 5 more variables: homeworld <chr>,
    ## #   species <chr>, films <list>, vehicles <list>, starships <list>

Reorder by `mass`, breaking ties with `height`:

``` r
arrange(starwars, mass, height)
```

    ## # A tibble: 87 x 13
    ##    name     height  mass hair_color skin_color eye_color birth_year gender
    ##    <chr>     <int> <dbl> <chr>      <chr>      <chr>          <dbl> <chr> 
    ##  1 Ratts T…     79  15.0 none       grey, blue unknown        NA    male  
    ##  2 Yoda         66  17.0 white      green      brown         896    male  
    ##  3 Wicket …     88  20.0 brown      brown      brown           8.00 male  
    ##  4 R2-D2        96  32.0 <NA>       white, bl… red            33.0  <NA>  
    ##  5 R5-D4        97  32.0 <NA>       white, red red            NA    <NA>  
    ##  6 Sebulba     112  40.0 none       grey, red  orange         NA    male  
    ##  7 Dud Bolt     94  45.0 none       blue, grey yellow         NA    male  
    ##  8 Padmé A…    165  45.0 brown      light      brown          46.0  female
    ##  9 Sly Moo…    178  48.0 none       pale       white          NA    female
    ## 10 Wat Tam…    193  48.0 none       green, gr… unknown        NA    male  
    ## # ... with 77 more rows, and 5 more variables: homeworld <chr>,
    ## #   species <chr>, films <list>, vehicles <list>, starships <list>

Reorder by decreasing `mass`:

``` r
arrange(starwars, desc(mass))
```

    ## # A tibble: 87 x 13
    ##    name    height  mass hair_color  skin_color eye_color birth_year gender
    ##    <chr>    <int> <dbl> <chr>       <chr>      <chr>          <dbl> <chr> 
    ##  1 Jabba …    175  1358 <NA>        green-tan… orange         600   herma…
    ##  2 Grievo…    216   159 none        brown, wh… green, y…       NA   male  
    ##  3 IG-88      200   140 none        metal      red             15.0 none  
    ##  4 Darth …    202   136 none        white      yellow          41.9 male  
    ##  5 Tarfful    234   136 brown       brown      blue            NA   male  
    ##  6 Owen L…    178   120 brown, grey light      blue            52.0 male  
    ##  7 Bossk      190   113 none        green      red             53.0 male  
    ##  8 Chewba…    228   112 brown       unknown    blue           200   male  
    ##  9 Jek To…    180   110 brown       fair       blue            NA   male  
    ## 10 Dexter…    198   102 none        brown      yellow          NA   male  
    ## # ... with 77 more rows, and 5 more variables: homeworld <chr>,
    ## #   species <chr>, films <list>, vehicles <list>, starships <list>

## The alternative with `order()` and `[`

``` r
starwars[order(starwars$mass, starwars$height), ]
```

    ## # A tibble: 87 x 13
    ##    name     height  mass hair_color skin_color eye_color birth_year gender
    ##    <chr>     <int> <dbl> <chr>      <chr>      <chr>          <dbl> <chr> 
    ##  1 Ratts T…     79  15.0 none       grey, blue unknown        NA    male  
    ##  2 Yoda         66  17.0 white      green      brown         896    male  
    ##  3 Wicket …     88  20.0 brown      brown      brown           8.00 male  
    ##  4 R2-D2        96  32.0 <NA>       white, bl… red            33.0  <NA>  
    ##  5 R5-D4        97  32.0 <NA>       white, red red            NA    <NA>  
    ##  6 Sebulba     112  40.0 none       grey, red  orange         NA    male  
    ##  7 Dud Bolt     94  45.0 none       blue, grey yellow         NA    male  
    ##  8 Padmé A…    165  45.0 brown      light      brown          46.0  female
    ##  9 Sly Moo…    178  48.0 none       pale       white          NA    female
    ## 10 Wat Tam…    193  48.0 none       green, gr… unknown        NA    male  
    ## # ... with 77 more rows, and 5 more variables: homeworld <chr>,
    ## #   species <chr>, films <list>, vehicles <list>, starships <list>
…
When you work interactively, this is great\!

But, sometimes it causes problems…

# 2\. Using a dplyr function with a saved variable

## Using `arrange()` with a saved variable

``` r
arrange(starwars, desc(mass))
```

    ## # A tibble: 87 x 13
    ##    name    height  mass hair_color  skin_color eye_color birth_year gender
    ##    <chr>    <int> <dbl> <chr>       <chr>      <chr>          <dbl> <chr> 
    ##  1 Jabba …    175  1358 <NA>        green-tan… orange         600   herma…
    ##  2 Grievo…    216   159 none        brown, wh… green, y…       NA   male  
    ##  3 IG-88      200   140 none        metal      red             15.0 none  
    ##  4 Darth …    202   136 none        white      yellow          41.9 male  
    ##  5 Tarfful    234   136 brown       brown      blue            NA   male  
    ##  6 Owen L…    178   120 brown, grey light      blue            52.0 male  
    ##  7 Bossk      190   113 none        green      red             53.0 male  
    ##  8 Chewba…    228   112 brown       unknown    blue           200   male  
    ##  9 Jek To…    180   110 brown       fair       blue            NA   male  
    ## 10 Dexter…    198   102 none        brown      yellow          NA   male  
    ## # ... with 77 more rows, and 5 more variables: homeworld <chr>,
    ## #   species <chr>, films <list>, vehicles <list>, starships <list>
…
``` r
starwars$col
```

    ## Warning: Unknown or uninitialised column: 'col'.

    ## NULL

What to do? Use a function that doesn’t use quote its argument:

``` r
starwars[, col]
```

    ## # A tibble: 87 x 1
    ##     mass
    ##    <dbl>
    ##  1  77.0
    ##  2  75.0
    ##  3  32.0
    ##  4 136  
    ##  5  49.0
    ##  6 120  
    ##  7  75.0
    ##  8  32.0
    ##  9  84.0
    ## 10  77.0
    ## # ... with 77 more rows
…
## A Solution

First we want to quote `height`, not evaluate it:

``` r
var <- expr(mass)
```

Then we can unquote `var` when we pass it to `arrange()`:

``` r
arrange(starwars, !!var)
```

    ## # A tibble: 87 x 13
    ##    name     height  mass hair_color skin_color eye_color birth_year gender
    ##    <chr>     <int> <dbl> <chr>      <chr>      <chr>          <dbl> <chr> 
    ##  1 Ratts T…     79  15.0 none       grey, blue unknown        NA    male  
    ##  2 Yoda         66  17.0 white      green      brown         896    male  
    ##  3 Wicket …     88  20.0 brown      brown      brown           8.00 male  
    ##  4 R2-D2        96  32.0 <NA>       white, bl… red            33.0  <NA>  
    ##  5 R5-D4        97  32.0 <NA>       white, red red            NA    <NA>  
    ##  6 Sebulba     112  40.0 none       grey, red  orange         NA    male  
    ##  7 Dud Bolt     94  45.0 none       blue, grey yellow         NA    male  
    ##  8 Padmé A…    165  45.0 brown      light      brown          46.0  female
    ##  9 Wat Tam…    193  48.0 none       green, gr… unknown        NA    male  
    ## 10 Sly Moo…    178  48.0 none       pale       white          NA    female
    ## # ... with 77 more rows, and 5 more variables: homeworld <chr>,
    ## #   species <chr>, films <list>, vehicles <list>, starships <list>

You can selectively unquote things, so to get reverse ordering:

``` r
arrange(starwars, desc(!!var))
```

    ## # A tibble: 87 x 13
    ##    name    height  mass hair_color  skin_color eye_color birth_year gender
    ##    <chr>    <int> <dbl> <chr>       <chr>      <chr>          <dbl> <chr> 
    ##  1 Jabba …    175  1358 <NA>        green-tan… orange         600   herma…
    ##  2 Grievo…    216   159 none        brown, wh… green, y…       NA   male  
    ##  3 IG-88      200   140 none        metal      red             15.0 none  
    ##  4 Darth …    202   136 none        white      yellow          41.9 male  
    ##  5 Tarfful    234   136 brown       brown      blue            NA   male  
    ##  6 Owen L…    178   120 brown, grey light      blue            52.0 male  
    ##  7 Bossk      190   113 none        green      red             53.0 male  
    ##  8 Chewba…    228   112 brown       unknown    blue           200   male  
    ##  9 Jek To…    180   110 brown       fair       blue            NA   male  
    ## 10 Dexter…    198   102 none        brown      yellow          NA   male  
    ## # ... with 77 more rows, and 5 more variables: homeworld <chr>,
    ## #   species <chr>, films <list>, vehicles <list>, starships <list>

# 3\. Using a dplyr function inside a function

## Now, we might want to turn this into a function

``` r
var <- expr(height)
arrange(starwars, desc(!!var))
```

    ## # A tibble: 87 x 13
    ##    name    height  mass hair_color skin_color  eye_color birth_year gender
    ##    <chr>    <int> <dbl> <chr>      <chr>       <chr>          <dbl> <chr> 
    ##  1 Yarael…    264  NA   none       white       yellow          NA   male  
    ##  2 Tarfful    234 136   brown      brown       blue            NA   male  
    ##  3 Lama Su    229  88.0 none       grey        black           NA   male  
    ##  4 Chewba…    228 112   brown      unknown     blue           200   male  
    ##  5 Roos T…    224  82.0 none       grey        orange          NA   male  
    ##  6 Grievo…    216 159   none       brown, whi… green, y…       NA   male  
    ##  7 Taun We    213  NA   none       grey        black           NA   female
    ##  8 Rugor …    206  NA   none       green       orange          NA   male  
    ##  9 Tion M…    206  80.0 none       grey        black           NA   male  
    ## 10 Darth …    202 136   none       white       yellow          41.9 male  
    ## # ... with 77 more rows, and 5 more variables: homeworld <chr>,
    ## #   species <chr>, films <list>, vehicles <list>, starships <list>

One attempt:

``` r
arrange_desc <- function(.data, var){
  arrange(.data, desc(!!var))
}

arrange_desc(starwars, expr(mass))
```

    ## # A tibble: 87 x 13
    ##    name    height  mass hair_color  skin_color eye_color birth_year gender
    ##    <chr>    <int> <dbl> <chr>       <chr>      <chr>          <dbl> <chr> 
    ##  1 Jabba …    175  1358 <NA>        green-tan… orange         600   herma…
    ##  2 Grievo…    216   159 none        brown, wh… green, y…       NA   male  
    ##  3 IG-88      200   140 none        metal      red             15.0 none  
    ##  4 Darth …    202   136 none        white      yellow          41.9 male  
    ##  5 Tarfful    234   136 brown       brown      blue            NA   male  
    ##  6 Owen L…    178   120 brown, grey light      blue            52.0 male  
    ##  7 Bossk      190   113 none        green      red             53.0 male  
    ##  8 Chewba…    228   112 brown       unknown    blue           200   male  
    ##  9 Jek To…    180   110 brown       fair       blue            NA   male  
    ## 10 Dexter…    198   102 none        brown      yellow          NA   male  
    ## # ... with 77 more rows, and 5 more variables: homeworld <chr>,
    ## #   species <chr>, films <list>, vehicles <list>, starships <list>
…
## Use `enexpr()` instead of `expr()` to capture arguments inside of functions

And finally it works

``` r
arrange_desc <- function(.data, var){
  var <- enexpr(var)
  arrange(.data, desc(!!var))
}
arrange_desc(starwars, mass)
```

    ## # A tibble: 87 x 13
    ##    name    height  mass hair_color  skin_color eye_color birth_year gender
    ##    <chr>    <int> <dbl> <chr>       <chr>      <chr>          <dbl> <chr> 
    ##  1 Jabba …    175  1358 <NA>        green-tan… orange         600   herma…
    ##  2 Grievo…    216   159 none        brown, wh… green, y…       NA   male  
    ##  3 IG-88      200   140 none        metal      red             15.0 none  
    ##  4 Darth …    202   136 none        white      yellow          41.9 male  
    ##  5 Tarfful    234   136 brown       brown      blue            NA   male  
    ##  6 Owen L…    178   120 brown, grey light      blue            52.0 male  
    ##  7 Bossk      190   113 none        green      red             53.0 male  
    ##  8 Chewba…    228   112 brown       unknown    blue           200   male  
    ##  9 Jek To…    180   110 brown       fair       blue            NA   male  
    ## 10 Dexter…    198   102 none        brown      yellow          NA   male  
    ## # ... with 77 more rows, and 5 more variables: homeworld <chr>,
    ## #   species <chr>, films <list>, vehicles <list>, starships <list>
…
<!-- end list -->

``` r
arrange_desc2 <- function(.data, ...){
  vars <- enexprs(...)
  vars_desc <- map(vars, function(var) expr(desc(!!var)))
  arrange(.data, !!!vars_desc)
}
arrange_desc2(starwars, mass, height)
```

    ## # A tibble: 87 x 13
    ##    name    height  mass hair_color  skin_color eye_color birth_year gender
    ##    <chr>    <int> <dbl> <chr>       <chr>      <chr>          <dbl> <chr> 
    ##  1 Jabba …    175  1358 <NA>        green-tan… orange         600   herma…
    ##  2 Grievo…    216   159 none        brown, wh… green, y…       NA   male  
    ##  3 IG-88      200   140 none        metal      red             15.0 none  
    ##  4 Tarfful    234   136 brown       brown      blue            NA   male  
    ##  5 Darth …    202   136 none        white      yellow          41.9 male  
    ##  6 Owen L…    178   120 brown, grey light      blue            52.0 male  
    ##  7 Bossk      190   113 none        green      red             53.0 male  
    ##  8 Chewba…    228   112 brown       unknown    blue           200   male  
    ##  9 Jek To…    180   110 brown       fair       blue            NA   male  
    ## 10 Dexter…    198   102 none        brown      yellow          NA   male  
    ## # ... with 77 more rows, and 5 more variables: homeworld <chr>,
    ## #   species <chr>, films <list>, vehicles <list>, starships <list>
…
